01_module/04_FPGA_Verilog/verilog/3-if-then/sorting.vcd
$date
	Mon Mar  8 02:46:22 2021
$end
$version
	Icarus Verilog
$end
$timescale
	1s
$end
$scope module sorting_test $end
$var wire 32 ! aa [31:0] $end
$var wire 32 " bb [31:0] $end
$var wire 32 # cc [31:0] $end
$var wire 32 $ dd [31:0] $end
$var wire 32 % ee [31:0] $end
$var wire 32 & ff [31:0] $end
$var wire 32 ' f3 [31:0] $end
$var wire 32 ( f2 [31:0] $end
$var wire 32 ) f1 [31:0] $end
$var wire 32 * e6 [31:0] $end
$var wire 32 + e5 [31:0] $end
$var wire 32 , e4 [31:0] $end
$var wire 32 - e3 [31:0] $end
$var wire 32 . e2 [31:0] $end
$var wire 32 / e1 [31:0] $end
$var wire 32 0 d6 [31:0] $end
$var wire 32 1 d5 [31:0] $end
$var wire 32 2 d4 [31:0] $end
$var wire 32 3 d3 [31:0] $end
$var wire 32 4 d2 [31:0] $end
$var wire 32 5 d1 [31:0] $end
$var wire 32 6 c6 [31:0] $end
$var wire 32 7 c5 [31:0] $end
$var wire 32 8 c4 [31:0] $end
$var wire 32 9 c3 [31:0] $end
$var wire 32 : c2 [31:0] $end
$var wire 32 ; c1 [31:0] $end
$var wire 32 < b6 [31:0] $end
$var wire 32 = b5 [31:0] $end
$var wire 32 > b4 [31:0] $end
$var wire 32 ? b3 [31:0] $end
$var wire 32 @ b2 [31:0] $end
$var wire 32 A b1 [31:0] $end
$var wire 32 B a3 [31:0] $end
$var wire 32 C a2 [31:0] $end
$var wire 32 D a1 [31:0] $end
$var reg 32 E a [31:0] $end
$var reg 32 F b [31:0] $end
$var reg 32 G c [31:0] $end
$var reg 1 H clk $end
$var reg 32 I d [31:0] $end
$var reg 32 J e [31:0] $end
$var reg 32 K f [31:0] $end
$scope module c1l1 $end
$var wire 32 L a_1 [31:0] $end
$var wire 32 M b_1 [31:0] $end
$var reg 32 N a_0 [31:0] $end
$var reg 32 O b_0 [31:0] $end
$upscope $end
$scope module c1l2 $end
$var wire 32 P a_1 [31:0] $end
$var wire 32 Q b_1 [31:0] $end
$var reg 32 R a_0 [31:0] $end
$var reg 32 S b_0 [31:0] $end
$upscope $end
$scope module c1l3 $end
$var wire 32 T a_1 [31:0] $end
$var wire 32 U b_1 [31:0] $end
$var reg 32 V a_0 [31:0] $end
$var reg 32 W b_0 [31:0] $end
$upscope $end
$scope module c1l4 $end
$var wire 32 X a_1 [31:0] $end
$var wire 32 Y b_1 [31:0] $end
$var reg 32 Z a_0 [31:0] $end
$var reg 32 [ b_0 [31:0] $end
$upscope $end
$scope module c1l5 $end
$var wire 32 \ a_1 [31:0] $end
$var wire 32 ] b_1 [31:0] $end
$var reg 32 ^ a_0 [31:0] $end
$var reg 32 _ b_0 [31:0] $end
$upscope $end
$scope module c1l6 $end
$var wire 32 ` a_1 [31:0] $end
$var wire 32 a b_1 [31:0] $end
$var reg 32 b a_0 [31:0] $end
$var reg 32 c b_0 [31:0] $end
$upscope $end
$scope module c2l1 $end
$var wire 32 d a_1 [31:0] $end
$var wire 32 e b_1 [31:0] $end
$var reg 32 f a_0 [31:0] $end
$var reg 32 g b_0 [31:0] $end
$upscope $end
$scope module c2l2 $end
$var wire 32 h a_1 [31:0] $end
$var wire 32 i b_1 [31:0] $end
$var reg 32 j a_0 [31:0] $end
$var reg 32 k b_0 [31:0] $end
$upscope $end
$scope module c2l3 $end
$var wire 32 l a_1 [31:0] $end
$var wire 32 m b_1 [31:0] $end
$var reg 32 n a_0 [31:0] $end
$var reg 32 o b_0 [31:0] $end
$upscope $end
$scope module c2l4 $end
$var wire 32 p a_1 [31:0] $end
$var wire 32 q b_1 [31:0] $end
$var reg 32 r a_0 [31:0] $end
$var reg 32 s b_0 [31:0] $end
$upscope $end
$scope module c2l5 $end
$var wire 32 t a_1 [31:0] $end
$var wire 32 u b_1 [31:0] $end
$var reg 32 v a_0 [31:0] $end
$var reg 32 w b_0 [31:0] $end
$upscope $end
$scope module c2l6 $end
$var wire 32 x a_1 [31:0] $end
$var wire 32 y b_1 [31:0] $end
$var reg 32 z a_0 [31:0] $end
$var reg 32 { b_0 [31:0] $end
$upscope $end
$scope module c3l1 $end
$var wire 32 | a_1 [31:0] $end
$var wire 32 } b_1 [31:0] $end
$var reg 32 ~ a_0 [31:0] $end
$var reg 32 !" b_0 [31:0] $end
$upscope $end
$scope module c3l3 $end
$var wire 32 "" a_1 [31:0] $end
$var wire 32 #" b_1 [31:0] $end
$var reg 32 $" a_0 [31:0] $end
$var reg 32 %" b_0 [31:0] $end
$upscope $end
$scope module c3l5 $end
$var wire 32 &" a_1 [31:0] $end
$var wire 32 '" b_1 [31:0] $end
$var reg 32 (" a_0 [31:0] $end
$var reg 32 )" b_0 [31:0] $end
$upscope $end
$upscope $end
$enddefinitions $end
#0
$dumpvars
b0 )"
b0 ("
b0 '"
b0 &"
b0 %"
b0 $"
b0 #"
b0 ""
b0 !"
b0 ~
b0 }
b0 |
b0 {
b0 z
b0 y
b0 x
b0 w
b0 v
b0 u
b0 t
b0 s
b0 r
b0 q
b0 p
b0 o
b0 n
b0 m
b0 l
b0 k
b0 j
b0 i
b0 h
b0 g
b0 f
b0 e
b0 d
b0 c
b0 b
b0 a
b0 `
b0 _
b0 ^
b0 ]
b0 \
b0 [
b0 Z
b0 Y
b0 X
b0 W
b0 V
b0 U
b0 T
b0 S
b0 R
b0 Q
b0 P
b0 O
b0 N
b0 M
b0 L
b0 K
b0 J
b0 I
0H
b0 G
b0 F
b0 E
b0 D
b0 C
b0 B
b0 A
b0 @
b0 ?
b0 >
b0 =
b0 <
b0 ;
b0 :
b0 9
b0 8
b0 7
b0 6
b0 5
b0 4
b0 3
b0 2
b0 1
b0 0
b0 /
b0 .
b0 -
b0 ,
b0 +
b0 *
b0 )
b0 (
b0 '
b0 &
b0 %
b0 $
b0 #
b0 "
b0 !
$end
#1
b100 #
b100 6
b100 c
b101 "
b101 <
b101 b
b101 =
b101 _
b101 `
b10 %
b10 *
b10 {
b11 $
b11 0
b11 z
b11 1
b11 w
b11 x
b100 7
b100 a
b100 v
b100 8
b100 [
b100 t
b111 >
b111 Z
b111 ]
b1 &
b1 '
b1 )"
b10 +
b10 y
b10 ("
b1 ,
b1 s
b1 &"
b11 2
b11 r
b11 u
b1 3
b1 o
b1 p
b111 9
b111 Y
b111 n
b100 ?
b100 W
b100 X
b111 !
b111 B
b111 ^
b10 (
b10 %"
b10 '"
b11 -
b11 q
b11 $"
b10 .
b10 k
b10 ""
b111 4
b111 j
b111 m
b1 :
b1 S
b1 l
b101 @
b101 R
b101 U
b101 C
b101 V
b101 \
b11 )
b11 !"
b11 #"
b111 /
b111 i
b111 ~
b10 5
b10 g
b10 h
b101 ;
b101 Q
b101 f
b1 A
b1 O
b1 P
b100 D
b100 N
b100 T
b111 K
b111 }
b11 J
b11 |
b101 I
b101 e
b10 G
b10 d
b1 F
b1 M
b100 E
b100 L
1H
#2
b1110 #
b1110 6
b1110 c
b1000 %
b1000 *
b1000 {
b1100 $
b1100 0
b1100 z
b1111 >
b1111 Z
b1111 ]
b1100 1
b1100 w
b1100 x
b1110 7
b1110 a
b1110 v
b1111 "
b1111 <
b1111 b
b1000 +
b1000 y
b1000 ("
b1100 2
b1100 r
b1100 u
b1111 9
b1111 Y
b1111 n
b1110 8
b1110 [
b1110 t
b1111 =
b1111 _
b1111 `
b10000 !
b10000 B
b10000 ^
b1000 (
b1000 %"
b1000 '"
b1100 -
b1100 q
b1100 $"
b1100 .
b1100 k
b1100 ""
b1111 4
b1111 j
b1111 m
b1110 @
b1110 R
b1110 U
b1110 ?
b1110 W
b1110 X
b10000 C
b10000 V
b10000 \
b1000 )
b1000 !"
b1000 #"
b1111 /
b1111 i
b1111 ~
b1100 5
b1100 g
b1100 h
b1110 ;
b1110 Q
b1110 f
b10000 D
b10000 N
b10000 T
b1000 K
b1000 }
b1111 J
b1111 |
b1110 I
b1110 e
b1100 G
b1100 d
b10000 F
b10000 M
b1 E
b1 L
0H
#3
b1001 #
b1001 6
b1001 c
b11 %
b11 *
b11 {
b100 $
b100 0
b100 z
b1001 >
b1001 Z
b1001 ]
b100 1
b100 w
b100 x
b1001 7
b1001 a
b1001 v
b1001 "
b1001 <
b1001 b
b10 &
b10 '
b10 )"
b11 +
b11 y
b11 ("
b11 ,
b11 s
b11 &"
b1001 2
b1001 r
b1001 u
b11 3
b11 o
b11 p
b1001 9
b1001 Y
b1001 n
b100 8
b100 [
b100 t
b1001 =
b1001 _
b1001 `
b10011 !
b10011 B
b10011 ^
b10 (
b10 %"
b10 '"
b1001 -
b1001 q
b1001 $"
b1001 .
b1001 k
b1001 ""
b1001 4
b1001 j
b1001 m
b11 :
b11 S
b11 l
b10011 @
b10011 R
b10011 U
b100 ?
b100 W
b100 X
b10011 C
b10011 V
b10011 \
b10 )
b10 !"
b10 #"
b1001 /
b1001 i
b1001 ~
b1001 5
b1001 g
b1001 h
b10011 ;
b10011 Q
b10011 f
b11 A
b11 O
b11 P
b100 D
b100 N
b100 T
b1001 K
b1001 }
b10 J
b10 |
b10011 I
b10011 e
b1001 G
b1001 d
b100 F
b100 M
b11 E
b11 L
1H
#4
b1100 #
b1100 6
b1100 c
b10000 "
b10000 <
b10000 b
b1011 %
b1011 *
b1011 {
b1100 $
b1100 0
b1100 z
b1100 1
b1100 w
b1100 x
b1100 7
b1100 a
b1100 v
b10000 =
b10000 _
b10000 `
b10000 !
b10000 B
b10000 ^
b1010 &
b1010 '
b1010 )"
b1011 +
b1011 y
b1011 ("
b1011 ,
b1011 s
b1011 &"
b1100 2
b1100 r
b1100 u
b1011 3
b1011 o
b1011 p
b1100 9
b1100 Y
b1100 n
b10000 C
b10000 V
b10000 \
b1100 8
b1100 [
b1100 t
b10000 >
b10000 Z
b10000 ]
b1010 (
b1010 %"
b1010 '"
b1100 -
b1100 q
b1100 $"
b1100 .
b1100 k
b1100 ""
b1100 4
b1100 j
b1100 m
b1011 :
b1011 S
b1011 l
b10000 @
b10000 R
b10000 U
b10000 ?
b10000 W
b10000 X
b1010 )
b1010 !"
b1010 #"
b1100 /
b1100 i
b1100 ~
b1100 5
b1100 g
b1100 h
b10000 ;
b10000 Q
b10000 f
b1011 A
b1011 O
b1011 P
b10000 D
b10000 N
b10000 T
b1010 K
b1010 }
b1100 J
b1100 |
b10000 I
b10000 e
b1100 G
b1100 d
b1011 F
b1011 M
b10000 E
b10000 L
0H
#5
b1111 #
b1111 6
b1111 c
b1111 "
b1111 <
b1111 b
b1111 7
b1111 a
b1111 v
b1111 =
b1111 _
b1111 `
b1111 8
b1111 [
b1111 t
b1111 >
b1111 Z
b1111 ]
b11 &
b11 '
b11 )"
b1100 3
b1100 o
b1100 p
b1111 9
b1111 Y
b1111 n
b1111 ?
b1111 W
b1111 X
b10001 !
b10001 B
b10001 ^
b11 (
b11 %"
b11 '"
b1011 -
b1011 q
b1011 $"
b1011 .
b1011 k
b1011 ""
b1111 :
b1111 S
b1111 l
b1111 @
b1111 R
b1111 U
b10001 C
b10001 V
b10001 \
b11 )
b11 !"
b11 #"
b1011 5
b1011 g
b1011 h
b1111 ;
b1111 Q
b1111 f
b1111 A
b1111 O
b1111 P
b10001 D
b10001 N
b10001 T
b1100 K
b1100 }
b11 J
b11 |
b1111 I
b1111 e
b1011 G
b1011 d
b10001 F
b10001 M
b1111 E
b1111 L
1H
#6
b1101 #
b1101 6
b1101 c
b10010 "
b10010 <
b10010 b
b10 %
b10 *
b10 {
b1001 $
b1001 0
b1001 z
b10100 >
b10100 Z
b10100 ]
b1101 =
b1101 _
b1101 `
b1001 1
b1001 w
b1001 x
b10010 7
b10010 a
b10010 v
b1 &
b1 '
b1 )"
b10 +
b10 y
b10 ("
b10 ,
b10 s
b10 &"
b10010 2
b10010 r
b10010 u
b10 3
b10 o
b10 p
b10100 9
b10100 Y
b10100 n
b1001 8
b1001 [
b1001 t
b10100 !
b10100 B
b10100 ^
b1 (
b1 %"
b1 '"
b10010 -
b10010 q
b10010 $"
b1 .
b1 k
b1 ""
b10100 4
b10100 j
b10100 m
b10 :
b10 S
b10 l
b1001 @
b1001 R
b1001 U
b1001 ?
b1001 W
b1001 X
b1101 C
b1101 V
b1101 \
b10010 )
b10010 !"
b10010 #"
b10100 /
b10100 i
b10100 ~
b1 5
b1 g
b1 h
b10 ;
b10 Q
b10 f
b1001 A
b1001 O
b1001 P
b1101 D
b1101 N
b1101 T
b10100 K
b10100 }
b10010 J
b10010 |
b1 I
b1 e
b10 G
b10 d
b1001 F
b1001 M
b1101 E
b1101 L
0H
#7
b10001 "
b10001 <
b10001 b
b11001 !
b11001 B
b11001 ^
b11 %
b11 *
b11 {
b1000 $
b1000 0
b1000 z
b1000 1
b1000 w
b1000 x
b1110 7
b1110 a
b1110 v
b1000 8
b1000 [
b1000 t
b11001 >
b11001 Z
b11001 ]
b1110 #
b1110 6
b1110 c
b11 &
b11 '
b11 )"
b11 +
b11 y
b11 ("
b11 ,
b11 s
b11 &"
b1110 2
b1110 r
b1110 u
b11 3
b11 o
b11 p
b11001 9
b11001 Y
b11001 n
b1000 ?
b1000 W
b1000 X
b10001 =
b10001 _
b10001 `
b11 (
b11 %"
b11 '"
b1110 -
b1110 q
b1110 $"
b11 .
b11 k
b11 ""
b11001 4
b11001 j
b11001 m
b11 :
b11 S
b11 l
b1000 @
b1000 R
b1000 U
b10001 C
b10001 V
b10001 \
b1110 )
b1110 !"
b1110 #"
b11001 /
b11001 i
b11001 ~
b11 5
b11 g
b11 h
b1000 ;
b1000 Q
b1000 f
b11 A
b11 O
b11 P
b10001 D
b10001 N
b10001 T
b11001 K
b11001 }
b1110 J
b1110 |
b11 I
b11 e
b1000 G
b1000 d
b11 F
b11 M
b10001 E
b10001 L
1H
#8
b1010 %
b1010 *
b1010 {
b1110 $
b1110 0
b1110 z
b1110 1
b1110 w
b1110 x
b10101 !
b10101 B
b10101 ^
b1001 &
b1001 '
b1001 )"
b1010 +
b1010 y
b1010 ("
b1010 ,
b1010 s
b1010 &"
b1110 8
b1110 [
b1110 t
b10101 >
b10101 Z
b10101 ]
b1110 "
b1110 <
b1110 b
b1001 (
b1001 %"
b1001 '"
b1010 3
b1010 o
b1010 p
b10101 9
b10101 Y
b10101 n
b1110 ?
b1110 W
b1110 X
b1110 =
b1110 _
b1110 `
b1001 .
b1001 k
b1001 ""
b10101 4
b10101 j
b10101 m
b1010 :
b1010 S
b1010 l
b1110 @
b1110 R
b1110 U
b1110 C
b1110 V
b1110 \
b10101 /
b10101 i
b10101 ~
b1001 5
b1001 g
b1001 h
b1110 ;
b1110 Q
b1110 f
b1010 A
b1010 O
b1010 P
b1110 D
b1110 N
b1110 T
b10101 K
b10101 }
b1110 I
b1110 e
b1001 G
b1001 d
b1010 F
b1010 M
b1110 E
b1110 L
0H
#9
b1111 #
b1111 6
b1111 c
b10011 !
b10011 B
b10011 ^
b1100 %
b1100 *
b1100 {
b1101 $
b1101 0
b1101 z
b1101 1
b1101 w
b1101 x
b1111 7
b1111 a
b1111 v
b1101 8
b1101 [
b1101 t
b10011 >
b10011 Z
b10011 ]
b1111 "
b1111 <
b1111 b
b1010 &
b1010 '
b1010 )"
b1100 +
b1100 y
b1100 ("
b1100 ,
b1100 s
b1100 &"
b1111 2
b1111 r
b1111 u
b1100 3
b1100 o
b1100 p
b10011 9
b10011 Y
b10011 n
b1101 ?
b1101 W
b1101 X
b1111 =
b1111 _
b1111 `
b1010 (
b1010 %"
b1010 '"
b1111 -
b1111 q
b1111 $"
b1010 .
b1010 k
b1010 ""
b10011 4
b10011 j
b10011 m
b1100 :
b1100 S
b1100 l
b1101 @
b1101 R
b1101 U
b1111 C
b1111 V
b1111 \
b1111 )
b1111 !"
b1111 #"
b10011 /
b10011 i
b10011 ~
b1010 5
b1010 g
b1010 h
b1101 ;
b1101 Q
b1101 f
b1100 A
b1100 O
b1100 P
b1111 D
b1111 N
b1111 T
b1111 K
b1111 }
b10011 J
b10011 |
b1010 I
b1010 e
b1101 G
b1101 d
b1100 F
b1100 M
b1111 E
b1111 L
1H
#10
b10010 !
b10010 B
b10010 ^
b10000 "
b10000 <
b10000 b
b111 %
b111 *
b111 {
b1000 $
b1000 0
b1000 z
b110 &
b110 '
b110 )"
b111 +
b111 y
b111 ("
b110 ,
b110 s
b110 &"
b10010 >
b10010 Z
b10010 ]
b1000 1
b1000 w
b1000 x
b1111 #
b1111 6
b1111 c
b111 (
b111 %"
b111 '"
b110 3
b110 o
b110 p
b10010 9
b10010 Y
b10010 n
b1000 8
b1000 [
b1000 t
b10000 =
b10000 _
b10000 `
b111 .
b111 k
b111 ""
b10010 4
b10010 j
b10010 m
b110 :
b110 S
b110 l
b10000 @
b10000 R
b10000 U
b1000 ?
b1000 W
b1000 X
b10000 C
b10000 V
b10000 \
b10010 /
b10010 i
b10010 ~
b111 5
b111 g
b111 h
b10000 ;
b10000 Q
b10000 f
b110 A
b110 O
b110 P
b1000 D
b1000 N
b1000 T
b10010 K
b10010 }
b1111 J
b1111 |
b10000 I
b10000 e
b111 G
b111 d
b1000 F
b1000 M
b110 E
b110 L
0H
